{
	"id": "2aacd4e5-c82d-459f-8e3a-46d275f9ac84",
	"name": "Local",
	"values": [
		{
			"key": "shop_hapi_server",
			"value": "localhost:3000",
			"enabled": true
		},
		{
			"key": "mock_api_server",
			"value": "localhost:3838",
			"enabled": true
		},
		{
			"key": "v2_apigee_env",
			"value": "https://dit03-pd.api.t-mobile.com",
			"enabled": true
		},
		{
			"key": "apigee_env",
			"value": "https://tmobileqat-qat07-pro.apigee.net",
			"enabled": true
		},
		{
			"key": "store_locator_env",
			"value": "https://kkcdrrnxwk.execute-api.us-west-2.amazonaws.com/dev",
			"enabled": true
		},
		{
			"key": "cloudfront_env",
			"value": "http://localhost:8000/shop/repository/local",
			"enabled": true
		},
		{
			"key": "v3_jwt_credentials",
			"value": "RjRGMEVXVEtXeXgwRUhicFpuNTA2ZDBIeTBaRDFUWk46SWU5TjBOT0cxdlNsc3gwcQ==",
			"enabled": true
		}
	],
	"_postman_variable_scope": "environment",
	"_postman_exported_at": "2019-08-12T22:31:11.524Z",
	"_postman_exported_using": "Postman/7.3.5"
}