{
	"id": "b95f66a6-2470-4637-b872-c492f5ccbf70",
	"name": "Prod",
	"values": [
		{
			"key": "store_locator_env",
			"value": "https://onmyj41p3c.execute-api.us-west-2.amazonaws.com/prod",
			"enabled": true
		},
		{
			"key": "cloudfront_env",
			"value": "https://d2pztsnze46kbj.cloudfront.net/shop/repository/prd",
			"enabled": true
		},
		{
			"key": "shop_hapi_server",
			"value": "https://www.t-mobile.com",
			"enabled": true
		},
		{
			"key": "on_prem_apigee_env",
			"value": "https://core.op.api.internal.t-mobile.com",
			"enabled": true
		},
		{
			"key": "on_prem_apigee_client_id",
			"value": "ckE2eGJ2RWYzZkFtMDFDQUI2ZmFVUlNXaUF4WVhHT1g6QzZYMXVlUEc1MEVxMGVibw==",
			"enabled": true
		},
		{
			"key": "saas_apigee_env",
			"value": "https://api.t-mobile.com",
			"enabled": true
		},
		{
			"key": "saas_apigee_client_id",
			"value": "allmUHVjZGFEZjI0VWJHSzZCdTZBWTdTeFVuTmNiN0o6cWdwYXh5OXRsM0VZeXZUSw==",
			"enabled": true
		},
		{
			"key": "saas_apigee_v2_client_id",
			"value": "hV6lfg3EBAiVX5EZjbpexLoLhGhuGiWR",
			"enabled": true
		}
	],
	"_postman_variable_scope": "environment",
	"_postman_exported_at": "2019-10-08T02:31:07.985Z",
	"_postman_exported_using": "Postman/7.8.0"
}